<?xml version="1.0" encoding="UTF-8"?>
<svg width="20px" height="16px" viewBox="0 0 20 16" version="1.1" xmlns="http://www.w3.org/2000/svg" xmlns:xlink="http://www.w3.org/1999/xlink">
    <!-- Generator: sketchtool 59.1 (101010) - https://sketch.com -->
    <title>2D20BD1D-D77F-40FE-836A-7E54C3339544</title>
    <desc>Created with sketchtool.</desc>
    <defs>
        <rect id="path-1" x="0" y="0" width="24" height="24"></rect>
    </defs>
    <g id="Welcome" stroke="none" stroke-width="1" fill="none" fill-rule="evenodd">
        <g id="4everin_HP_kontakt" transform="translate(-251.000000, -393.000000)">
            <g id="Kontakt" transform="translate(249.000000, 185.000000)">
                <g id="Kontaktni-osoba" transform="translate(0.000000, 94.000000)">
                    <g id="Mail_icon_white" transform="translate(0.000000, 110.000000)">
                        <g id="basic-/-mail">
                            <mask id="mask-2" fill="white">
                                <use xlink:href="#path-1"></use>
                            </mask>
                            <g id="basic-/-mail-(Background/Mask)"></g>
                            <path d="M2,6 C2,4.89543056 2.89543056,4 4,4 L20,4 C21.1045704,4 22,4.89543056 22,6 L22,18 C22,19.1045694 21.1045704,20 20,20 L4,20 C2.89543104,20 2,19.1045694 2,18 L2,6 C2,5.26362038 2,5.26362038 2,6 Z M20,7.86850476 L20,18 L4,18 L4,7.86850739 L12,13.2018394 L20,7.86850476 L20,7.86850476 Z M19.1972046,6 L4.80279016,6 L12,10.7981381 L19.1972046,6 L19.1972046,6 Z" fill="#FFFFFF" mask="url(#mask-2)"></path>
                        </g>
                    </g>
                </g>
            </g>
        </g>
    </g>
</svg>